<?xml version="1.0" encoding="utf-8"?>
<!-- Generator: Adobe Illustrator 23.0.3, SVG Export Plug-In . SVG Version: 6.00 Build 0)  -->
<svg version="1.1" id="Capa_1" xmlns="http://www.w3.org/2000/svg" xmlns:xlink="http://www.w3.org/1999/xlink" x="0px" y="0px"
	 viewBox="0 0 1280 1280" style="enable-background:new 0 0 1280 1280;" xml:space="preserve">
<style type="text/css">
	.st0{fill:#363F40;}
</style>
<g>
	<path class="st0" d="M334.8,1154c-2.5,0-4.9-0.6-7.2-1.7l-192.8-96.4c-5.4-2.7-8.9-8.3-8.9-14.4V383c0-5.6,2.9-10.7,7.6-13.7
		c4.7-2.9,10.7-3.2,15.6-0.7L342,465c5.4,2.7,8.9,8.3,8.9,14.4v658.6c0,5.6-2.9,10.7-7.6,13.7C340.7,1153.2,337.7,1154,334.8,1154z
		 M158.1,1031.6l160.6,80.3V489.3L158.1,409V1031.6z"/>
	<path class="st0" d="M940.3,1153.2L640,1058.4l-300.3,94.8l-9.7-30.6l305.2-96.4c3.2-1,6.5-1,9.7,0l305.2,96.4L940.3,1153.2z"/>
	<path class="st0" d="M640,800.6c-5,0-9.7-2.3-12.8-6.3C618.6,783,415.1,515,415.1,350.9C415.1,226.9,516,126,640,126
		s224.9,100.9,224.9,224.9c0,164.2-203.5,432.1-212.1,443.4C649.7,798.3,645,800.6,640,800.6z M640,158.1
		c-106.3,0-192.8,86.5-192.8,192.8c0,130.8,147.8,344.7,192.8,406.6c44.9-62,192.8-275.9,192.8-406.6
		C832.8,244.6,746.3,158.1,640,158.1z"/>
	<rect x="623.9" y="832.8" class="st0" width="32.1" height="208.8"/>
	<path class="st0" d="M640,463.3c-62,0-112.4-50.4-112.4-112.4S578,238.4,640,238.4s112.4,50.4,112.4,112.4S702,463.3,640,463.3z
		 M640,270.6c-44.3,0-80.3,36-80.3,80.3s36,80.3,80.3,80.3s80.3-36,80.3-80.3S684.3,270.6,640,270.6z"/>
	<rect x="623.9" y="447.3" class="st0" width="32.1" height="176.7"/>
	<rect x="222.4" y="672.1" class="st0" width="32.1" height="32.1"/>
	<rect x="222.4" y="736.4" class="st0" width="32.1" height="32.1"/>
	<rect x="222.4" y="800.6" class="st0" width="32.1" height="32.1"/>
	
		<rect x="333.8" y="455.3" transform="matrix(0.9701 -0.2428 0.2428 0.9701 -103.4491 103.18)" class="st0" width="66.2" height="32.1"/>
	<path class="st0" d="M945.2,1154c-2.9,0-5.9-0.8-8.4-2.4c-4.7-2.9-7.6-8.1-7.6-13.7V479.4c0-6.1,3.4-11.6,8.9-14.4l192.8-96.4
		c5-2.5,10.9-2.2,15.6,0.7c4.7,2.9,7.6,8.1,7.6,13.7v658.6c0,6.1-3.4,11.6-8.9,14.4l-192.8,96.4C950.1,1153.4,947.6,1154,945.2,1154
		z M961.3,489.3v622.6l160.6-80.3V409L961.3,489.3z"/>
	<rect x="1025.5" y="672.1" class="st0" width="32.1" height="32.1"/>
	<rect x="1025.5" y="736.4" class="st0" width="32.1" height="32.1"/>
	<rect x="1025.5" y="800.6" class="st0" width="32.1" height="32.1"/>
	
		<rect x="897" y="438.2" transform="matrix(0.2425 -0.9701 0.9701 0.2425 234.3417 1242.8268)" class="st0" width="32.1" height="66.2"/>
</g>
</svg>
